Grade: 95

Compiles	                          20 pts
Comments                              10 pts
Method shuffle(list)                  20 pts
Method getHand(list,index, numCards)  20 pts
Method printArray(list)               20 pts
Checks If numCards given is greater
than the number of cards in the deck  10 pts
-5: uses old deck of cards instead of a new one